module github.com/Sifchain/sifnode

go 1.18

require (
	github.com/BurntSushi/toml v1.1.0
	github.com/MakeNowJust/heredoc v1.0.0
	github.com/cespare/cp v1.1.1 // indirect
	github.com/cosmos/cosmos-sdk v0.45.6
	github.com/cosmos/ibc-go/v2 v2.0.2
	github.com/deckarep/golang-set v1.7.1 // indirect
	github.com/ethereum/go-ethereum v1.10.13
	github.com/gballet/go-libpcsclite v0.0.0-20191108122812-4678299bea08 // indirect
	github.com/gogo/protobuf v1.3.3
	github.com/golang/mock v1.6.0
	github.com/golang/protobuf v1.5.2
	github.com/google/uuid v1.2.0
	github.com/gorilla/mux v1.8.0
	github.com/grpc-ecosystem/grpc-gateway v1.16.0
	github.com/jackpal/go-nat-pmp v1.0.2 // indirect
	github.com/joho/godotenv v1.3.0
	github.com/miguelmota/go-solidity-sha3 v0.1.1
	github.com/onsi/ginkgo v1.16.4
	github.com/onsi/gomega v1.13.0
	github.com/pkg/errors v0.9.1
	github.com/rakyll/statik v0.1.7
	github.com/rjeczalik/notify v0.9.2 // indirect
	github.com/sethvargo/go-password v0.2.0
	github.com/spf13/cast v1.4.1
	github.com/spf13/cobra v1.4.0
	github.com/spf13/pflag v1.0.5
	github.com/spf13/viper v1.10.1
	github.com/status-im/keycard-go v0.0.0-20200402102358-957c09536969 // indirect
	github.com/stretchr/objx v0.3.0 // indirect
	github.com/stretchr/testify v1.7.1
	github.com/syndtr/goleveldb v1.0.1-0.20210819022825-2ae1ddf74ef7
	github.com/tendermint/tendermint v0.34.19
	github.com/tendermint/tm-db v0.6.6
	github.com/tyler-smith/go-bip39 v1.1.0
	github.com/vishalkuo/bimap v0.0.0-20180703190407-09cff2814645
	github.com/yelinaung/go-haikunator v0.0.0-20150320004105-1249cae259af
	go.uber.org/zap v1.19.1
	google.golang.org/genproto v0.0.0-20211223182754-3ac035c7e7cb
	google.golang.org/grpc v1.45.0
	gopkg.in/yaml.v3 v3.0.0-20210107192922-496545a6307b
)

require (
	filippo.io/edwards25519 v1.0.0-beta.2 // indirect
	github.com/99designs/keyring v1.1.6 // indirect
	github.com/ChainSafe/go-schnorrkel v0.0.0-20200405005733-88cbf1b4c40d // indirect
	github.com/DataDog/zstd v1.4.5 // indirect
	github.com/StackExchange/wmi v1.2.1 // indirect
	github.com/Workiva/go-datastructures v1.0.53 // indirect
	github.com/armon/go-metrics v0.3.10 // indirect
	github.com/beorn7/perks v1.0.1 // indirect
	github.com/bgentry/speakeasy v0.1.0 // indirect
	github.com/btcsuite/btcd v0.22.0-beta // indirect
	github.com/cespare/xxhash v1.1.0 // indirect
	github.com/cespare/xxhash/v2 v2.1.2 // indirect
	github.com/coinbase/rosetta-sdk-go v0.7.0 // indirect
	github.com/confio/ics23/go v0.6.6 // indirect
	github.com/cosmos/btcutil v1.0.4 // indirect
	github.com/cosmos/go-bip39 v1.0.0 // indirect
	github.com/cosmos/iavl v0.17.3 // indirect
	github.com/cosmos/ledger-cosmos-go v0.11.1 // indirect
	github.com/cosmos/ledger-go v0.9.2 // indirect
	github.com/danieljoos/wincred v1.0.2 // indirect
	github.com/davecgh/go-spew v1.1.1 // indirect
	github.com/desertbit/timer v0.0.0-20180107155436-c41aec40b27f // indirect
	github.com/dgraph-io/badger/v2 v2.2007.2 // indirect
	github.com/dgraph-io/ristretto v0.0.3 // indirect
	github.com/dgryski/go-farm v0.0.0-20200201041132-a6ae2369ad13 // indirect
	github.com/dustin/go-humanize v1.0.0 // indirect
	github.com/dvsekhvalnov/jose2go v0.0.0-20200901110807-248326c1351b // indirect
	github.com/felixge/httpsnoop v1.0.1 // indirect
	github.com/fsnotify/fsnotify v1.5.1 // indirect
	github.com/go-kit/kit v0.12.0 // indirect
	github.com/go-kit/log v0.2.0 // indirect
	github.com/go-logfmt/logfmt v0.5.1 // indirect
	github.com/go-ole/go-ole v1.2.5 // indirect
	github.com/go-stack/stack v1.8.0 // indirect
	github.com/godbus/dbus v0.0.0-20190726142602-4481cbc300e2 // indirect
	github.com/gogo/gateway v1.1.0 // indirect
	github.com/golang/snappy v0.0.4 // indirect
	github.com/google/btree v1.0.0 // indirect
	github.com/google/orderedcode v0.0.1 // indirect
	github.com/gorilla/handlers v1.5.1 // indirect
	github.com/gorilla/websocket v1.5.0 // indirect
	github.com/grpc-ecosystem/go-grpc-middleware v1.3.0 // indirect
	github.com/gsterjov/go-libsecret v0.0.0-20161001094733-a6f4afe4910c // indirect
	github.com/gtank/merlin v0.1.1 // indirect
	github.com/gtank/ristretto255 v0.1.2 // indirect
	github.com/hashicorp/go-immutable-radix v1.3.1 // indirect
	github.com/hashicorp/go-uuid v1.0.2 // indirect
	github.com/hashicorp/golang-lru v0.5.5-0.20210104140557-80c98217689d // indirect
	github.com/hashicorp/hcl v1.0.0 // indirect
	github.com/hdevalence/ed25519consensus v0.0.0-20210204194344-59a8610d2b87 // indirect
	github.com/improbable-eng/grpc-web v0.14.1 // indirect
	github.com/inconshreveable/mousetrap v1.0.0 // indirect
	github.com/jmhodges/levigo v1.0.0 // indirect
	github.com/keybase/go-keychain v0.0.0-20190712205309-48d3d31d256d // indirect
	github.com/klauspost/compress v1.13.6 // indirect
	github.com/lib/pq v1.10.4 // indirect
	github.com/libp2p/go-buffer-pool v0.0.2 // indirect
	github.com/magiconair/properties v1.8.5 // indirect
	github.com/mattn/go-isatty v0.0.14 // indirect
	github.com/matttproud/golang_protobuf_extensions v1.0.1 // indirect
	github.com/mimoo/StrobeGo v0.0.0-20181016162300-f8f6d4d2b643 // indirect
	github.com/minio/highwayhash v1.0.2 // indirect
	github.com/mitchellh/go-homedir v1.1.0 // indirect
	github.com/mitchellh/mapstructure v1.4.3 // indirect
	github.com/mtibben/percent v0.2.1 // indirect
	github.com/nxadm/tail v1.4.8 // indirect
	github.com/pelletier/go-toml v1.9.4 // indirect
	github.com/petermattis/goid v0.0.0-20180202154549-b0b1615b78e5 // indirect
	github.com/pmezard/go-difflib v1.0.0 // indirect
	github.com/prometheus/client_golang v1.12.1 // indirect
	github.com/prometheus/client_model v0.2.0 // indirect
	github.com/prometheus/common v0.32.1 // indirect
	github.com/prometheus/procfs v0.7.3 // indirect
	github.com/rcrowley/go-metrics v0.0.0-20200313005456-10cdbea86bc0 // indirect
	github.com/regen-network/cosmos-proto v0.3.1 // indirect
	github.com/rs/cors v1.8.2 // indirect
	github.com/rs/zerolog v1.23.0 // indirect
	github.com/sasha-s/go-deadlock v0.2.1-0.20190427202633-1595213edefa // indirect
	github.com/shirou/gopsutil v3.21.4-0.20210419000835-c7a38de76ee5+incompatible // indirect
	github.com/spf13/afero v1.6.0 // indirect
	github.com/spf13/jwalterweatherman v1.1.0 // indirect
	github.com/subosito/gotenv v1.2.0 // indirect
	github.com/tecbot/gorocksdb v0.0.0-20191217155057-f0fad39f321c // indirect
	github.com/tendermint/btcd v0.1.1 // indirect
	github.com/tendermint/crypto v0.0.0-20191022145703-50d29ede1e15 // indirect
	github.com/tendermint/go-amino v0.16.0 // indirect
	github.com/tklauser/go-sysconf v0.3.7 // indirect
	github.com/tklauser/numcpus v0.2.3 // indirect
	github.com/zondax/hid v0.9.0 // indirect
	go.etcd.io/bbolt v1.3.6 // indirect
	go.uber.org/atomic v1.9.0 // indirect
	go.uber.org/multierr v1.7.0 // indirect
	golang.org/x/crypto v0.0.0-20210915214749-c084706c2272 // indirect
	golang.org/x/net v0.0.0-20211208012354-db4efeb81f4b // indirect
	golang.org/x/sys v0.0.0-20220114195835-da31bd327af9 // indirect
	golang.org/x/term v0.0.0-20201126162022-7de9c90e9dd1 // indirect
	golang.org/x/text v0.3.7 // indirect
	google.golang.org/protobuf v1.27.1 // indirect
	gopkg.in/ini.v1 v1.66.2 // indirect
	gopkg.in/natefinch/npipe.v2 v2.0.0-20160621034901-c1b8fa8bdcce // indirect
	gopkg.in/tomb.v1 v1.0.0-20141024135613-dd632973f1e7 // indirect
	gopkg.in/yaml.v2 v2.4.0 // indirect
	nhooyr.io/websocket v1.8.6 // indirect
)

require pgregory.net/rapid v0.4.7

replace (
	github.com/cosmos/ibc-go/v2 => github.com/Sifchain/ibc-go/v2 v2.0.3-issue.850
	github.com/gogo/protobuf => github.com/regen-network/protobuf v1.3.3-alpha.regen.1
	google.golang.org/grpc => google.golang.org/grpc v1.33.2
	github.com/libp2p/go-buffer-pool => github.com/libp2p/go-buffer-pool v0.1.0
)
